{
  "images" : [
    {
      "filename" : "932ce24dcae0dcf299eef2261f23fac4.png",
      "idiom" : "universal",
      "scale" : "1x"
    },
    {
      "filename" : "932ce24dcae0dcf299eef2261f23fac4@2x.png",
      "idiom" : "universal",
      "scale" : "2x"
    },
    {
      "filename" : "932ce24dcae0dcf299eef2261f23fac4@3x.png",
      "idiom" : "universal",
      "scale" : "3x"
    }
  ],
  "info" : {
    "author" : "xcode",
    "version" : 1
  }
}
